{
	"lobby_inspect_options_desc" : "Выберите какая информация будет появляться о хосте",

	"lobby_inspect_type_title" : "Режим",
	"lobby_inspect_type_desc" : "Как игра поведет себя когда вы подключитесь к лобби",
	"lobby_inspect_confirm" : "С разрешением",
	"lobby_inspect_instant" : "Без задержки",
	"lobby_inspect_normal" : "Без разрешения",
	"lobby_inspect_friends_title" : "Друзья",
	"lobby_inspect_friends_desc" : "Проверка ваших Steam друзей",
	"lobby_inspect_hours_title" : "Часы",
	"lobby_inspect_hours_desc" : "Показать количество часов проведенных в игре игроком",
	"lobby_inspect_achievements_title" : "Достижения",
	"lobby_inspect_achievements_desc" : "Показать достижения игрока",
	"lobby_inspect_vac_title" : "VAC",
	"lobby_inspect_vac_desc" : "Показать статус VAC игрока",
	"lobby_inspect_steam_overlay_title" : "Steam",
	"lobby_inspect_steam_overlay_desc" : "Показать кнопку которая перенаправляет вас на Steam профиль игрока",
	"lobby_inspect_steamrep_overlay_title" : "SteamRep",
	"lobby_inspect_steamrep_overlay_desc" : "Показать кнопку которая перенаправляет вас на SteamRep профиль игрока",
	
	"lobby_inspect_cancel" : "Выйти",
	"lobby_inspect_refresh" : "Обновить",
	"lobby_inspect_ban" : "Бан",
	"lobby_inspect_connect" : "Присоединиться",
	"lobby_inspect_inspect" : "Проверить",
	"lobby_inspect_question" : "Вы хотите проверить хоста?",
	"lobby_inspect_error" : "Что-то пошло не так, продолжение может вызвать краш, пожалуйста попробуйте другое лобби.",
	"lobby_inspect_vac" : "VAC статус",
	"lobby_inspect_playtime" : "Время игры",
	"lobby_inspect_hours" : "Час / Часов",
	"lobby_inspect_failed" : "Не удалось расшифровать данные",
	"lobby_inspect_hidden" : "Скрыто",
	"lobby_inspect_clean" : "Чисто",
	"lobby_inspect_warning" : "Предупреждение",
	
	"lobby_inspect_steam_down" : "Steam сервера упали",
	
	"lobby_inspect_language_title" : "Язык",
	"lobby_inspect_language_desc" : "Измените язык по вашему вкусу",
	
	"lobby_inspect_okay" : "Okay",
	"lobby_inspect_ban_confirm" : "Do you want to ban",
	"lobby_inspect_banned" : "has been banned",
	
	"lobby_inspect_is_from_blacklist" : "IS FROM BLACKLIST!"
}